com/onlineStore/OnlineStoreApplication.class
com/onlineStore/domain/Usuario.class
com/onlineStore/service/UsuarioService.class
com/onlineStore/repository/UsuarioRepository.class
com/onlineStore/api/UsuarioController.class
com/onlineStore/business/UsuarioServiceImpl.class
com/onlineStore/domain/Usuario$UsuarioBuilder.class
